{
  "serial": 4,
  "prefix": "shoggot",
  "servers": [
    "shoggot.mg-lpoint.ru"
  ],
  "qrAction": {
    "a": {
      "transitionPrefix": "Artifact",
      "reportFeatureName": "Report"
    }
  },
  "inventoryElements": {
    "Default": "Default",
    "Contact": "Contact",
    "Report": "Report"
  },
  "menu": [
    {
      "label": "Персонаж",
      "menu": "/charmenu"
    },
    {
      "label": "Сообщения",
      "menu": "/inventory"
    }
  ],
  "blescanner": {
    "enabled": true,
    "uuids": {
      "dce4f7d1-20e5-40e4-8816-254424793ffa": "show"
    },
    "beacons": {
      "1": {
        "onEnter": [
          "ApplyTransition(Decrease-mhp)",
          "PlaySound(sounds/Sound_07313.mp3)"
        ]
      },
      "2": {
        "onEnter": [
          "ApplyTransition(Decrease-mhp)",
          "PlaySound(sounds/Sound_14973.mp3)"
        ]
      },
      "3": {
        "onEnter": [
          "ApplyTransition(Decrease-mhp)",
          "PlaySound(sounds/Sound_20898.mp3)"
        ]
      }
    }
  },
  "char-properties": {
    "mhp": {
      "type": "integer",
      "label": "Ментальное здоровье",
      "actions": [
        {
          "name": "+",
          "transition": "Increase-mhp"
        },
        {
          "name": "-",
          "transition": "Decrease-mhp"
        }
      ]
    },
    "php": {
      "type": "integer",
      "label": "Физическое здоровье",
      "actions": [
        {
          "name": "+",
          "transition": "Increase-php"
        },
        {
          "name": "-",
          "transition": "Decrease-php"
        }
      ]
    },
    "БОЛЕЗНЬ": {
      "type": "show-if-exist",
      "actions": [
        {
          "name": "Снять",
          "transition": "Remove-БОЛЕЗНЬ"
        }
      ]
    },
    "ГАЛЛЮЦИНАЦИИ": {
      "type": "show-if-exist",
      "actions": [
        {
          "name": "Снять",
          "transition": "Remove-ГАЛЛЮЦИНАЦИИ"
        }
      ]
    },
    "ИММУНИТЕТ": {
      "type": "show-if-exist",
      "actions": [
        {
          "name": "Снять",
          "transition": "Remove-ИММУНИТЕТ"
        }
      ]
    },
    "ИСТЕРИКА": {
      "type": "show-if-exist",
      "actions": [
        {
          "name": "Снять",
          "transition": "Remove-ИСТЕРИКА"
        }
      ]
    },
    "ИСТОЩЕНИЕ": {
      "type": "show-if-exist",
      "actions": [
        {
          "name": "Снять",
          "transition": "Remove-ИСТОЩЕНИЕ"
        }
      ]
    },
    "КОШМАРЫ": {
      "type": "show-if-exist",
      "actions": [
        {
          "name": "Снять",
          "transition": "Remove-КОШМАРЫ"
        }
      ]
    },
    "МАНИЯ": {
      "type": "show-if-exist",
      "actions": [
        {
          "name": "Снять",
          "transition": "Remove-МАНИЯ"
        }
      ]
    },
    "Медиум": {
      "type": "show-if-exist",
      "actions": [
      ]
    },
    "МУТАЦИЯ": {
      "type": "show-if-exist",
      "actions": [
        {
          "name": "Снять",
          "transition": "Remove-МУТАЦИЯ"
        }
      ]
    },
    "ОБМОРОЖЕНИЕ": {
      "type": "show-if-exist",
      "actions": [
        {
          "name": "Снять",
          "transition": "Remove-ОБМОРОЖЕНИЕ"
        }
      ]
    },
    "ОДЕРЖИМОСТЬ": {
      "type": "show-if-exist",
      "actions": [
        {
          "name": "Снять",
          "transition": "Remove-ОДЕРЖИМОСТЬ"
        }
      ]
    },
    "ПЕРЕЛОМ": {
      "type": "show-if-exist",
      "actions": [
        {
          "name": "Снять",
          "transition": "Remove-ПЕРЕЛОМ"
        }
      ]
    },
    "ПСИХОЗ": {
      "type": "show-if-exist",
      "actions": [
        {
          "name": "Снять",
          "transition": "Remove-ПСИХОЗ"
        }
      ]
    },
    "РАНЕНИЕ": {
      "type": "show-if-exist",
      "actions": [
        {
          "name": "Снять",
          "transition": "Remove-РАНЕНИЕ"
        }
      ]
    },
    "ФОБИИ": {
      "type": "show-if-exist",
      "actions": [
        {
          "name": "Снять",
          "transition": "Remove-ФОБИИ"
        }
      ]
    }
  }
}

